{
    "KPlugin": {
        "Category": "Appearance",
        "Description": "Improve contrast and readability behind semi-transparent windows",
        "Description[ar]": "حسِّن التباين وقابلية القراءة خلف النوافذ الظاهرة جزئيًّا",
        "Description[az]": "Yarımşəffaf pəncərənin altındakı fonun kontrastını yaxşılaşdırır",
        "Description[be]": "Паляпшэнне кантраснасці і чытальнасці за паўпразрыстымі вокнамі",
        "Description[bg]": "Подобряване на контраста и четливостта зад полупрозрачни прозорци",
        "Description[ca@valencia]": "Millora el contrast i la llegibilitat darrere de les finestres semitransparents",
        "Description[ca]": "Millora el contrast i la llegibilitat darrere de les finestres semitransparents",
        "Description[cs]": "Vylepšit kontrast a čitelnost za poloprůhlednými okny",
        "Description[de]": "Erhöht den Kontrast und verbessert die Lesbarkeit hinter halbtransparenten Fenster",
        "Description[en_GB]": "Improve contrast and readability behind semi-transparent windows",
        "Description[eo]": "Plibonigu kontraston kaj legeblecon malantaŭ duontravideblaj fenestroj",
        "Description[es]": "Mejora el contraste y la legibilidad detrás de las ventanas semitransparentes",
        "Description[et]": "Poolläbipaistvate akende tausta kontrasti ja loetavuse parandamine",
        "Description[eu]": "Hobetu kontrastea eta irakurgarritasuna leiho erdi-gardenen atzean",
        "Description[fi]": "Paranna kontrastia ja luettavuutta puoliksi läpikuultavien ikkunoiden takana",
        "Description[fr]": "Améliore le contraste et la lisibilité derrière les fenêtres semi transparentes",
        "Description[gl]": "Mellora o contraste e a lexibilidade tras das xanelas semitransparentes.",
        "Description[he]": "שיפור הניגודיות ונוחות הקריאה מאחורי חלונות שקופים למחצה",
        "Description[hu]": "Megnöveli a kontrasztot és az olvashatóságot a félig áttetsző ablakok mögött",
        "Description[ia]": "Meliora contrasto de fundo  e legibilitate detra fenestras semi-transparente",
        "Description[id]": "Memperbaiki kontras dan keterbacaan belakang jendela semi transparan",
        "Description[it]": "Migliora il contrasto e la leggibilità dietro a finestre semitrasparenti",
        "Description[ja]": "半透明なウィンドウの背景のコントラストと可読性を改善します",
        "Description[ka]": "ნახევრადგამჭვირვალე ფანჯრების მიღმა კითხვადობისა და კონტრასტის გაუმჯობესება",
        "Description[ko]": "반투명 창 뒤편의 명암과 가독성을 개선함",
        "Description[nl]": "Contrast en leesbaarheid verbeteren achter half-transparante vensters",
        "Description[nn]": "Forbetra kontrasten og leselegheit bak delvis gjennomsiktige vindauge",
        "Description[pl]": "Polepsza kontrast i czytelność za półprzezroczystymi oknami",
        "Description[pt]": "Melhorar o contraste e legibilidade atrás de janelas semi-transparentes",
        "Description[pt_BR]": "Melhora o contraste e legibilidade por trás das janelas semitransparentes",
        "Description[ro]": "Îmbunătățește contrastul și lizibilitatea în spatele ferestrelor semi-transparente",
        "Description[ru]": "Улучшение контрастности под полупрозрачными окнами",
        "Description[sk]": "Zlepšiť kontrast a čitateľnosť za polopriehľadnými oknami",
        "Description[sl]": "Izboljšajte kontrast in berljivost za polprosojnimi okni",
        "Description[sv]": "Förbättra kontrast och läsbarhet bakom halvgenomskinliga fönster",
        "Description[ta]": "ஒளிபுகும் சாளரங்களுக்கு பின் உள்ளவற்றை படிக்க உதவும் வித‍த்தில் நிறங்களுக்கிடையேயான மாறுபாட்டை அதிகமாக்கும்",
        "Description[tr]": "Yarısaydam pencerelerin ardında karşıtlığı ve okunabilirlilği iyileştir",
        "Description[uk]": "Покращення контрастності та придатності до читання тексту під напівпрозорими вікнами",
        "Description[vi]": "Cải thiện độ tương phản và tính dễ đọc phía sau các cửa sổ bán trong suốt",
        "Description[x-test]": "xxImprove contrast and readability behind semi-transparent windowsxx",
        "Description[zh_CN]": "增强半透明窗口背景区域内容的对比度，改善其可读性",
        "Description[zh_TW]": "改善半透明視窗後方的對比與可讀性",
        "EnabledByDefault": true,
        "License": "GPL",
        "Name": "Background Contrast",
        "Name[ar]": "تباين الخلفية",
        "Name[be]": "Кантраснасць фону",
        "Name[bg]": "Контраст на фона",
        "Name[ca@valencia]": "Contrast del fons",
        "Name[ca]": "Contrast del fons",
        "Name[cs]": "Kontrast pozadí",
        "Name[de]": "Hintergrundkontrast",
        "Name[en_GB]": "Background Contrast",
        "Name[eo]": "Fona Kontrasto",
        "Name[es]": "Contraste del fondo",
        "Name[eu]": "Atzeko planoaren kontrastea",
        "Name[fi]": "Taustakontrasti",
        "Name[fr]": "Contraste de l'arrière-plan",
        "Name[gl]": "Contraste co fondo",
        "Name[he]": "ניגודיות רקע",
        "Name[ia]": "Contrasto de fundo",
        "Name[it]": "Contrasto dello sfondo",
        "Name[ja]": "背景のコントラスト",
        "Name[ka]": "ფონის კონტრასტი",
        "Name[ko]": "배경 명암",
        "Name[nl]": "Contrast in achtergrond",
        "Name[nn]": "Bakgrunnskontrast",
        "Name[pl]": "Kontrast tła",
        "Name[pt]": "Contraste do Fundo",
        "Name[pt_BR]": "Contraste do plano de fundo",
        "Name[ru]": "Контрастность фона",
        "Name[sk]": "Kontrast pozadia",
        "Name[sl]": "Kontrast ozadja",
        "Name[ta]": "பின்புல நிறமாறுபாடு",
        "Name[tr]": "Arka Plan Karşıtlığı",
        "Name[uk]": "Контрастність тла",
        "Name[vi]": "Tương phản nền",
        "Name[x-test]": "xxBackground Contrastxx",
        "Name[zh_CN]": "背景对比度",
        "Name[zh_TW]": "背景對比"
    },
    "org.kde.kwin.effect": {
        "enabledByDefaultMethod": true
    }
}
