{
    "KPlugin": {
        "Category": "Accessibility",
        "Description": "Supports picking a color",
        "Description[ar]": "يدعم انتقاء لون",
        "Description[az]": "Rəng seçimi dəstəklənir",
        "Description[be]": "Падтрымка выбару колеру",
        "Description[bg]": "Поддържа избор на цвят",
        "Description[ca@valencia]": "Permet seleccionar un color",
        "Description[ca]": "Permet seleccionar un color",
        "Description[cs]": "Podporuje výběr barev",
        "Description[de]": "Unterstützt das Auswählen einer Farbe",
        "Description[en_GB]": "Supports picking a colour",
        "Description[eo]": "Subtenas elekton de koloro",
        "Description[es]": "Permite seleccionar un color",
        "Description[et]": "Võimaldab värvi valida",
        "Description[eu]": "Kolore bat hartzea onartzen du",
        "Description[fi]": "Antaa valita ruudulta värin",
        "Description[fr]": "Permet de sélectionner une couleur",
        "Description[gl]": "Permite seleccionar unha cor.",
        "Description[he]": "תומך בבחירת צבע",
        "Description[hu]": "Támogatja a színválasztást",
        "Description[ia]": "Supporta seliger un color",
        "Description[id]": "Mendukung penukilan warna",
        "Description[it]": "Supporta la selezione di un colore",
        "Description[ja]": "カラーピッカーをサポートします",
        "Description[ka]": "აქვს ფერის არჩევის მხარდაჭერა",
        "Description[ko]": "색상 선택 지원",
        "Description[nl]": "Ondersteunt een kleur kiezen",
        "Description[nn]": "Støttar veljing av farge",
        "Description[pl]": "Obsługuje wybieranie koloru",
        "Description[pt]": "Suporta a selecção de uma cor",
        "Description[pt_BR]": "Suporta a escolha de uma cor",
        "Description[ro]": "Permite alegerea unei culori",
        "Description[ru]": "Выбор цвета на экране",
        "Description[sk]": "Podporuje výber farby",
        "Description[sl]": "Podpira izbor barve",
        "Description[sv]": "Stöder att hämta en färg",
        "Description[ta]": "திரையிலுள்ள ஓர் நிறத்தை தேர்ந்தெடுக்க உதவும்",
        "Description[tr]": "Bir renk seçmeyi destekler",
        "Description[uk]": "Підтримка взяття кольору з екрана",
        "Description[vi]": "Hỗ trợ nhặt màu",
        "Description[x-test]": "xxSupports picking a colorxx",
        "Description[zh_CN]": "拾色器专用辅助特效",
        "Description[zh_TW]": "支援挑選顏色",
        "EnabledByDefault": true,
        "License": "GPL",
        "Name": "Color Picker",
        "Name[ar]": "منتق الألوان",
        "Name[az]": "Rəng seçimi",
        "Name[be]": "Сродак выбару колеру",
        "Name[bg]": "Избиране на цвят",
        "Name[ca@valencia]": "Selector de color",
        "Name[ca]": "Selector de color",
        "Name[cs]": "Kapátko",
        "Name[de]": "Farbauswahl",
        "Name[en_GB]": "Colour Picker",
        "Name[eo]": "Kolor-Elektilo",
        "Name[es]": "Selector de color",
        "Name[et]": "Värvivalija",
        "Name[eu]": "Kolore hautatzailea",
        "Name[fi]": "Värivalinta",
        "Name[fr]": "Sélecteur de couleurs",
        "Name[gl]": "Selector de cor",
        "Name[he]": "בורר צבעים",
        "Name[hu]": "Színválasztó",
        "Name[ia]": "Selectionator de color",
        "Name[id]": "Pemilih Warna",
        "Name[it]": "Selettore del colore",
        "Name[ja]": "カラーピッカー",
        "Name[ka]": "ფერის ამრჩევი",
        "Name[ko]": "색상 선택기",
        "Name[nl]": "Kleurenkiezer",
        "Name[nn]": "Fargeveljar",
        "Name[pl]": "Wybierak barwy",
        "Name[pt]": "Selector de Cores",
        "Name[pt_BR]": "Seletor de cores",
        "Name[ro]": "Selector de culori",
        "Name[ru]": "Выбор цвета",
        "Name[sk]": "Výber farby",
        "Name[sl]": "Izbirnik barv",
        "Name[sv]": "Färghämtare",
        "Name[ta]": "வண்ண எடுப்பான்",
        "Name[tr]": "Renk Seçicisi",
        "Name[uk]": "Піпетка",
        "Name[vi]": "Trình nhặt màu",
        "Name[x-test]": "xxColor Pickerxx",
        "Name[zh_CN]": "拾色器",
        "Name[zh_TW]": "取色工具"
    },
    "org.kde.kwin.effect": {
        "internal": true
    }
}
