{
    "KPackageStructure": "KWin/Effect",
    "KPlugin": {
        "Authors": [
            {
                "Email": "l.lunak@kde.org, mgraesslin@kde.org",
                "Name": "Luboš Luňák, Martin Gräßlin",
                "Name[ar]": "لوبوس لوناك، مارتن جراجلين",
                "Name[be]": "Luboš Luňák, Martin Gräßlin",
                "Name[bg]": "Luboš Luňák, Martin Gräßlin",
                "Name[ca@valencia]": "Luboš Luňák, Martin Gräßlin",
                "Name[ca]": "Luboš Luňák, Martin Gräßlin",
                "Name[cs]": "Luboš Luňák, Martin Gräßlin",
                "Name[de]": "Luboš Luňák, Martin Gräßlin",
                "Name[en_GB]": "Luboš Luňák, Martin Gräßlin",
                "Name[eo]": "Luboš Luňák, Martin Gräßlin",
                "Name[es]": "Luboš Luňák, Martin Gräßlin",
                "Name[et]": "Luboš Luňák, Martin Gräßlin",
                "Name[eu]": "Luboš Luňák, Martin Gräßlin",
                "Name[fi]": "Luboš Luňák, Martin Gräßlin",
                "Name[fr]": "Luboš Luňák, Martin Gräßlin",
                "Name[gl]": "Luboš Luňák e Martin Gräßlin.",
                "Name[he]": "לובוש לוניאק",
                "Name[ia]": "Luboš Luňák, Martin Gräßlin",
                "Name[it]": "Luboš Luňák, Martin Gräßlin",
                "Name[ja]": "Luboš Luňák, Martin Gräßlin",
                "Name[ka]": "Luboš Luňák, Martin Gräßlin",
                "Name[ko]": "Luboš Luňák, Martin Gräßlin",
                "Name[nl]": "Luboš Luňák, Martin Gräßlin",
                "Name[nn]": "Luboš Luňák, Martin Gräßlin",
                "Name[pl]": "Luboš Luňák, Martin Gräßlin",
                "Name[pt]": "Luboš Luňák, Martin Gräßlin",
                "Name[ru]": "Luboš Luňák, Martin Gräßlin",
                "Name[sk]": "Luboš Luňák, Martin Gräßlin",
                "Name[sl]": "Luboš Luňák, Martin Gräßlin",
                "Name[ta]": "லூபொசு லுனாக்கு, மார்ட்டின் கிராஸ்லின்",
                "Name[tr]": "Luboš Luňák, Martin Gräßlin",
                "Name[uk]": "Luboš Luňák, Martin Gräßlin",
                "Name[vi]": "Luboš Luňák, Martin Gräßlin",
                "Name[x-test]": "xxLuboš Luňák, Martin Gräßlinxx",
                "Name[zh_CN]": "Luboš Luňák, Martin Gräßlin",
                "Name[zh_TW]": "Luboš Luňák, Martin Gräßlin"
            }
        ],
        "Category": "Appearance",
        "Description": "Make windows translucent under different conditions",
        "Description[ar]": "يجعل النوافذ شبه شفافة في شروط مختلفة",
        "Description[be]": "Забеспячэнне празрыстасці акон",
        "Description[bg]": "Прозрачност на прозорците при определени условия",
        "Description[ca@valencia]": "Torna translúcides les finestres en diverses condicions",
        "Description[ca]": "Torna translúcides les finestres en diverses condicions",
        "Description[cs]": "Zobrazuje okna různě průhledná",
        "Description[de]": "Lässt Fenster unter festgelegten Bedingungen transparent erscheinen",
        "Description[en_GB]": "Make windows translucent under different conditions",
        "Description[eo]": "Igi fenestrojn travideblaj sub malsamaj kondiĉoj",
        "Description[es]": "Hacer que las ventanas sean transparentes bajo distintas condiciones",
        "Description[et]": "Akende muutmine läbipaistvaks teatavatel tingimustel",
        "Description[eu]": "Leihoak zeharrargitsu bihurtzen ditu baldintzen arabera",
        "Description[fi]": "Muuttaa ikkunat läpikuultaviksi eri olosuhteissa",
        "Description[fr]": "Rendre les fenêtres translucides sous différentes conditions",
        "Description[gl]": "Fai translúcidas as xanelas en distintos casos.",
        "Description[he]": "להפוך את החלונות לשקופים למחצה לפי כל מיני תנאים שונים",
        "Description[ia]": "On face fenestra translucente sub conditiones differente",
        "Description[it]": "Rende le finestre translucide in certe condizioni",
        "Description[ja]": "さまざまな状況でウィンドウを半透明にします",
        "Description[ka]": "სხვადასხვა პირობებისას ფანჯრის გამჭვირვალობა",
        "Description[ko]": "다른 조건 하에서 창을 투명하게 만듭니다",
        "Description[nl]": "Maakt vensters doorschijnend onder andere condities",
        "Description[nn]": "Gjer vindauge i visse tilfelle gjennomsiktige",
        "Description[pl]": "Okna są prześwitujące w zależności od różnych warunków",
        "Description[pt]": "Tornar as janelas translúcidas em diferentes condições",
        "Description[ru]": "Использование полупрозрачности окон при разных событиях",
        "Description[sk]": "Vytvorenie priesvitných okien za rôznych podmienok",
        "Description[sl]": "Naredite okna prosojna pod različnimi pogoji",
        "Description[ta]": "சில சூழ்நிலைகளில் சாளரங்களின் ஒளிபுகுமையை கூட்டும்",
        "Description[tr]": "Değişik koşullar altında pencereleri yarısaydam yap",
        "Description[uk]": "Додавання прозорості до вікон за різних умов",
        "Description[vi]": "Làm cửa sổ trong mờ trong các điều kiện khác nhau",
        "Description[x-test]": "xxMake windows translucent under different conditionsxx",
        "Description[zh_CN]": "窗口在某些条件下呈现透明效果",
        "Description[zh_TW]": "在不同的情況下讓視窗變半透明",
        "Icon": "preferences-system-windows-effect-translucency",
        "Id": "translucency",
        "License": "GPL",
        "Name": "Translucency",
        "Name[ar]": "شبه الشفافية",
        "Name[be]": "Празрыстасць",
        "Name[bg]": "Прозрачност",
        "Name[ca@valencia]": "Translucidesa",
        "Name[ca]": "Translucidesa",
        "Name[cs]": "Průhlednost",
        "Name[de]": "Transparenz",
        "Name[en_GB]": "Translucency",
        "Name[eo]": "Travidebleco",
        "Name[es]": "Transparencia",
        "Name[et]": "Läbipaistvus",
        "Name[eu]": "Zeharrargitsua",
        "Name[fi]": "Läpikuultavuus",
        "Name[fr]": "Translucidité",
        "Name[gl]": "Translucidez",
        "Name[he]": "שקיפות למחצה",
        "Name[ia]": "Translucentia",
        "Name[it]": "Translucenza",
        "Name[ja]": "半透明性",
        "Name[ka]": "გამჭვირვალობა",
        "Name[ko]": "반투명",
        "Name[nl]": "Transparantie",
        "Name[nn]": "Gjennomsikt",
        "Name[pl]": "Prześwitywanie",
        "Name[pt]": "Translucidez",
        "Name[pt_BR]": "Transparência",
        "Name[ru]": "Полупрозрачность",
        "Name[sk]": "Priesvitnosť",
        "Name[sl]": "Prosojnost",
        "Name[ta]": "ஒளிபுகுமை",
        "Name[tr]": "Yarısaydamlık",
        "Name[uk]": "Прозорість",
        "Name[vi]": "Độ trong mờ",
        "Name[x-test]": "xxTranslucencyxx",
        "Name[zh_CN]": "窗口透明度",
        "Name[zh_TW]": "半透明"
    },
    "X-KDE-ConfigModule": "kcm_kwin4_genericscripted",
    "X-KDE-Ordering": 50,
    "X-KWin-Config-TranslationDomain": "kwin",
    "X-Plasma-API": "javascript"
}
